<?xml version="1.0" encoding="utf-8"?>
<!-- Generator: Adobe Illustrator 22.1.0, SVG Export Plug-In . SVG Version: 6.00 Build 0)  -->
<svg version="1.1" id="Capa_1" xmlns="http://www.w3.org/2000/svg" xmlns:xlink="http://www.w3.org/1999/xlink" x="0px" y="0px"
	 viewBox="0 0 300 228" style="enable-background:new 0 0 300 228;" xml:space="preserve">
<style type="text/css">
	.st0{fill:#19120A;}
	.st1{fill:none;}
	.st2{fill:#F7EC4A;}
	.st3{fill:#405CA1;}
	.st4{fill:#498138;}
	.st5{fill:#5F147D;}
	.st6{fill:#C01311;}
	.st7{fill:#D99029;}
	.st8{fill:none;stroke:#000000;stroke-width:1.7047;stroke-miterlimit:10;}
	.st9{fill:#FAFAFA;}
	.st10{fill:#F2F2F1;}
	.st11{fill:#615F5D;}
	.st12{fill:#5B5B59;}
	.st13{fill:#605F5D;}
	.st14{fill:#52524F;}
	.st15{fill:#00468B;}
	.st16{fill:#F2D43A;}
	.st17{fill:#C95733;}
	.st18{fill:#5C9B44;}
	.st19{fill:#191715;}
	.st20{fill:#331349;}
	.st21{fill:#242320;}
	.st22{fill:#C33930;}
	.st23{fill:#C85634;}
	.st24{fill:#5C9B43;}
	.st25{fill:#C33A30;}
	.st26{fill:#331449;}
	.st27{fill:#33144A;}
	.st28{fill:#5D9B45;}
	.st29{fill:#1B1917;}
	.st30{fill:#F7F6F8;}
	.st31{fill:#F7F6F7;}
	.st32{fill:#EFEDF1;}
	.st33{fill:#F3F2F4;}
	.st34{fill:#E2B093;}
	.st35{fill:#E6BA9D;}
	.st36{fill:#E8C0A6;}
	.st37{fill:#E8C1A8;}
	.st38{fill:#ECCCB7;}
	.st39{fill:#523968;}
	.st40{fill:#EDF4EA;}
	.st41{fill:#ECCDB6;}
	.st42{fill:#F7EADA;}
	.st43{fill:#F1DACA;}
	.st44{fill:#A6A7AA;}
	.st45{fill:#ECCDB7;}
	.st46{fill:#FBF5D2;}
	.st47{fill:#E0AA8A;}
	.st48{fill:#F4E2D5;}
	.st49{fill:#76AD72;}
	.st50{fill:#FAF1CC;}
	.st51{fill:#66527A;}
	.st52{fill:#EBC9B3;}
	.st53{fill:#E0A888;}
	.st54{fill:#F1DCCC;}
	.st55{fill:#F0D7C4;}
	.st56{fill:#DD9F7E;}
	.st57{fill:#EDCFBC;}
	.st58{fill:#E1AC8D;}
	.st59{fill:#DEA381;}
	.st60{fill:#F6E8D9;}
	.st61{fill:#E4B493;}
	.st62{fill:#E2B094;}
	.st63{fill:#DA9874;}
	.st64{fill:#FFFFFF;}
	.st65{fill-rule:evenodd;clip-rule:evenodd;fill:#390094;}
	.st66{fill-rule:evenodd;clip-rule:evenodd;fill:#009BDB;}
	.st67{fill-rule:evenodd;clip-rule:evenodd;fill:#009045;}
	.st68{fill-rule:evenodd;clip-rule:evenodd;fill:#FEEE00;}
	.st69{fill-rule:evenodd;clip-rule:evenodd;fill:#D68500;}
	.st70{fill-rule:evenodd;clip-rule:evenodd;fill:#BF0811;}
	
		.st71{fill-rule:evenodd;clip-rule:evenodd;fill:#FEEE00;stroke:#375737;stroke-width:2.0187;stroke-linejoin:round;stroke-miterlimit:22.9256;}
	
		.st72{fill-rule:evenodd;clip-rule:evenodd;fill:#009045;stroke:#375737;stroke-width:2.003;stroke-linejoin:round;stroke-miterlimit:22.9256;}
	
		.st73{fill-rule:evenodd;clip-rule:evenodd;fill:#009BDB;stroke:#375737;stroke-width:1.9975;stroke-linejoin:round;stroke-miterlimit:22.9256;}
	
		.st74{fill-rule:evenodd;clip-rule:evenodd;fill:#390094;stroke:#375737;stroke-width:2.0135;stroke-linejoin:round;stroke-miterlimit:22.9256;}
	
		.st75{fill-rule:evenodd;clip-rule:evenodd;fill:#BF0811;stroke:#375737;stroke-width:2.0015;stroke-linejoin:round;stroke-miterlimit:22.9256;}
	.st76{fill-rule:evenodd;clip-rule:evenodd;fill:none;stroke:#375737;stroke-width:2.0132;stroke-miterlimit:22.9256;}
	
		.st77{fill-rule:evenodd;clip-rule:evenodd;fill:#D68500;stroke:#375737;stroke-width:2.012;stroke-linejoin:round;stroke-miterlimit:22.9256;}
	.st78{fill-rule:evenodd;clip-rule:evenodd;fill:#375737;}
	.st79{fill-rule:evenodd;clip-rule:evenodd;fill:#FFFFFF;}
	.st80{fill-rule:evenodd;clip-rule:evenodd;fill:none;stroke:#375737;stroke-width:2.0186;stroke-miterlimit:22.9256;}
	.st81{fill-rule:evenodd;clip-rule:evenodd;fill:none;stroke:#375737;stroke-width:2.0115;stroke-miterlimit:22.9256;}
	.st82{fill-rule:evenodd;clip-rule:evenodd;fill:none;stroke:#375737;stroke-width:2.0095;stroke-miterlimit:22.9256;}
	.st83{fill-rule:evenodd;clip-rule:evenodd;fill:none;stroke:#375737;stroke-width:1.9951;stroke-miterlimit:22.9256;}
	.st84{fill-rule:evenodd;clip-rule:evenodd;}
</style>
<g>
	<g>
		<path class="st0" d="M19.9,205.9l-0.5,0.4c-0.3-0.4-0.7-0.7-1.1-0.9c-0.4-0.2-0.9-0.3-1.4-0.3c-0.5,0-1,0.1-1.5,0.4
			c-0.5,0.3-0.8,0.6-1.1,1.1c-0.3,0.4-0.4,0.9-0.4,1.5c0,0.8,0.3,1.5,0.9,2.1c0.6,0.6,1.3,0.8,2.2,0.8c1,0,1.8-0.4,2.4-1.1l0.5,0.4
			c-0.3,0.4-0.8,0.8-1.3,1c-0.5,0.2-1.1,0.4-1.7,0.4c-1.2,0-2.1-0.4-2.8-1.2c-0.6-0.7-0.9-1.5-0.9-2.4c0-1,0.4-1.8,1-2.5
			c0.7-0.7,1.6-1,2.6-1c0.6,0,1.2,0.1,1.7,0.4C19.2,205.1,19.6,205.4,19.9,205.9z"/>
		<path class="st0" d="M24.5,204.4c1,0,1.9,0.3,2.6,1c0.7,0.7,1,1.5,1,2.5c0,1-0.3,1.8-1,2.5c-0.7,0.7-1.5,1-2.5,1
			c-1,0-1.9-0.3-2.6-1c-0.7-0.7-1-1.5-1-2.5c0-0.7,0.2-1.3,0.5-1.8c0.3-0.6,0.7-1,1.3-1.3C23.3,204.6,23.9,204.4,24.5,204.4z
			 M24.5,205.1c-0.5,0-1,0.1-1.4,0.4c-0.5,0.3-0.8,0.6-1.1,1.1c-0.3,0.4-0.4,0.9-0.4,1.5c0,0.8,0.3,1.5,0.8,2.1
			c0.6,0.6,1.2,0.8,2,0.8c0.5,0,1-0.1,1.5-0.4c0.5-0.3,0.8-0.6,1.1-1c0.3-0.4,0.4-0.9,0.4-1.5s-0.1-1-0.4-1.5
			c-0.3-0.4-0.6-0.8-1.1-1C25.5,205.2,25.1,205.1,24.5,205.1z"/>
		<path class="st0" d="M29.5,204.6h0.7v2.9h3.5v-2.9h0.7v6.8h-0.7v-3.3h-3.5v3.3h-0.7V204.6z"/>
		<path class="st0" d="M36,204.6h3.9v0.7h-3.2v2.1h3.2v0.7h-3.2v2.7h3.2v0.7H36V204.6z"/>
		<path class="st0" d="M40.4,210.2l0.6-0.3c0.4,0.8,0.9,1.1,1.4,1.1c0.2,0,0.4-0.1,0.6-0.2c0.2-0.1,0.4-0.2,0.5-0.4
			c0.1-0.2,0.2-0.4,0.2-0.6c0-0.2-0.1-0.5-0.2-0.7c-0.2-0.3-0.6-0.7-1.2-1.1c-0.6-0.4-0.9-0.7-1.1-0.9c-0.2-0.3-0.4-0.7-0.4-1
			c0-0.3,0.1-0.6,0.2-0.8c0.1-0.2,0.3-0.4,0.6-0.6c0.3-0.1,0.5-0.2,0.8-0.2c0.3,0,0.6,0.1,0.9,0.2c0.3,0.2,0.6,0.5,0.9,0.9l-0.6,0.4
			c-0.3-0.3-0.5-0.6-0.7-0.7c-0.2-0.1-0.4-0.2-0.6-0.2c-0.3,0-0.5,0.1-0.7,0.2c-0.2,0.2-0.3,0.4-0.3,0.6c0,0.1,0,0.3,0.1,0.4
			c0.1,0.1,0.2,0.3,0.3,0.5c0.1,0.1,0.4,0.3,0.9,0.7c0.6,0.4,1,0.8,1.2,1.2c0.2,0.3,0.3,0.7,0.3,1c0,0.5-0.2,0.9-0.6,1.3
			c-0.4,0.4-0.8,0.5-1.4,0.5c-0.4,0-0.8-0.1-1.1-0.3C41,211,40.7,210.7,40.4,210.2z"/>
		<path class="st0" d="M45.7,204.6h0.7v6.8h-0.7V204.6z"/>
		<path class="st0" d="M51.2,204.4c1,0,1.9,0.3,2.6,1c0.7,0.7,1,1.5,1,2.5c0,1-0.3,1.8-1,2.5c-0.7,0.7-1.5,1-2.5,1
			c-1,0-1.9-0.3-2.6-1c-0.7-0.7-1-1.5-1-2.5c0-0.7,0.2-1.3,0.5-1.8c0.3-0.6,0.7-1,1.3-1.3C50,204.6,50.6,204.4,51.2,204.4z
			 M51.2,205.1c-0.5,0-1,0.1-1.4,0.4c-0.5,0.3-0.8,0.6-1.1,1.1c-0.3,0.4-0.4,0.9-0.4,1.5c0,0.8,0.3,1.5,0.8,2.1
			c0.6,0.6,1.2,0.8,2,0.8c0.5,0,1-0.1,1.5-0.4c0.4-0.3,0.8-0.6,1.1-1c0.3-0.4,0.4-0.9,0.4-1.5s-0.1-1-0.4-1.5
			c-0.3-0.4-0.6-0.8-1.1-1C52.2,205.2,51.8,205.1,51.2,205.1z M51.6,202.6h1l-1.4,1.4h-0.6L51.6,202.6z"/>
		<path class="st0" d="M56.2,211.4v-6.8h0.1l4.5,5.2v-5.2h0.7v6.8h-0.2l-4.5-5.2v5.2H56.2z"/>
		<path class="st0" d="M65.9,211.4v-6.8h1.4c1,0,1.8,0.1,2.2,0.2c0.7,0.2,1.2,0.6,1.5,1.2c0.4,0.6,0.6,1.3,0.6,2
			c0,0.7-0.1,1.3-0.4,1.8c-0.3,0.5-0.7,0.9-1.1,1.1c-0.5,0.2-1.1,0.4-2,0.4H65.9z M66.5,210.8h0.8c0.9,0,1.6-0.1,2-0.2
			c0.5-0.2,0.9-0.5,1.2-0.9c0.3-0.4,0.4-1,0.4-1.6c0-0.7-0.2-1.2-0.5-1.7c-0.3-0.5-0.8-0.8-1.3-1c-0.4-0.1-1.1-0.2-2.1-0.2h-0.5
			V210.8z"/>
		<path class="st0" d="M72.9,204.6h3.9v0.7h-3.2v2.1h3.2v0.7h-3.2v2.7h3.2v0.7h-3.9V204.6z"/>
		<path class="st0" d="M80.2,211.6v-6.8h1.4c1,0,1.8,0.1,2.2,0.2c0.7,0.2,1.2,0.6,1.5,1.2c0.4,0.6,0.6,1.3,0.6,2
			c0,0.7-0.1,1.3-0.4,1.8c-0.3,0.5-0.7,0.9-1.1,1.1c-0.5,0.2-1.1,0.4-2,0.4H80.2z M80.8,211h0.8c0.9,0,1.6-0.1,2-0.2
			c0.5-0.2,0.9-0.5,1.2-0.9c0.3-0.4,0.4-1,0.4-1.6c0-0.7-0.2-1.2-0.5-1.7c-0.3-0.5-0.8-0.8-1.3-1c-0.4-0.1-1.1-0.2-2.1-0.2h-0.5V211
			z"/>
		<path class="st0" d="M87.1,204.8h0.7v6.8h-0.7V204.8z"/>
		<path class="st0" d="M88.9,204.8h0.7l2.3,5.3l2.3-5.3h0.7l-3,6.8h-0.1L88.9,204.8z"/>
		<path class="st0" d="M96,204.8h3.9v0.7h-3.2v2.1h3.2v0.7h-3.2v2.7h3.2v0.7H96V204.8z"/>
		<path class="st0" d="M101.1,204.8h1.4c0.8,0,1.3,0,1.5,0.1c0.4,0.1,0.7,0.3,1,0.6c0.3,0.3,0.4,0.7,0.4,1.1c0,0.4-0.1,0.7-0.3,1
			c-0.2,0.3-0.4,0.5-0.7,0.6c-0.3,0.1-0.8,0.2-1.3,0.2l2.4,3.2h-0.8l-2.5-3.2h-0.4v3.2h-0.7V204.8z M101.7,205.5v2.3l1.2,0
			c0.5,0,0.8,0,1-0.1c0.2-0.1,0.4-0.2,0.5-0.4c0.1-0.2,0.2-0.4,0.2-0.6c0-0.2-0.1-0.4-0.2-0.6c-0.1-0.2-0.3-0.3-0.5-0.4
			c-0.2-0.1-0.5-0.1-1-0.1H101.7z"/>
		<path class="st0" d="M106.1,210.3l0.6-0.3c0.4,0.8,0.9,1.1,1.4,1.1c0.2,0,0.4-0.1,0.6-0.2c0.2-0.1,0.4-0.2,0.5-0.4
			c0.1-0.2,0.2-0.4,0.2-0.6c0-0.2-0.1-0.5-0.2-0.7c-0.2-0.3-0.6-0.7-1.2-1.1c-0.6-0.4-0.9-0.7-1.1-0.9c-0.2-0.3-0.4-0.7-0.4-1
			c0-0.3,0.1-0.6,0.2-0.8c0.1-0.2,0.3-0.4,0.6-0.6c0.3-0.1,0.5-0.2,0.8-0.2c0.3,0,0.6,0.1,0.9,0.2c0.3,0.2,0.6,0.5,0.9,0.9l-0.6,0.4
			c-0.3-0.3-0.5-0.6-0.7-0.7c-0.2-0.1-0.4-0.2-0.6-0.2c-0.3,0-0.5,0.1-0.7,0.2c-0.2,0.2-0.3,0.4-0.3,0.6c0,0.1,0,0.3,0.1,0.4
			c0.1,0.1,0.2,0.3,0.3,0.5c0.1,0.1,0.4,0.3,0.9,0.7c0.6,0.4,1,0.8,1.2,1.2c0.2,0.3,0.3,0.7,0.3,1c0,0.5-0.2,0.9-0.6,1.3
			c-0.4,0.4-0.8,0.5-1.4,0.5c-0.4,0-0.8-0.1-1.1-0.3C106.7,211.2,106.4,210.8,106.1,210.3z"/>
		<path class="st0" d="M111.4,204.8h0.7v6.8h-0.7V204.8z"/>
		<path class="st0" d="M113.7,211.6v-6.8h1.4c1,0,1.8,0.1,2.2,0.2c0.7,0.2,1.2,0.6,1.5,1.2c0.4,0.6,0.6,1.3,0.6,2
			c0,0.7-0.1,1.3-0.4,1.8c-0.3,0.5-0.7,0.9-1.1,1.1c-0.5,0.2-1.1,0.4-2,0.4H113.7z M114.3,211h0.8c0.9,0,1.6-0.1,2-0.2
			c0.5-0.2,0.9-0.5,1.2-0.9c0.3-0.4,0.4-1,0.4-1.6c0-0.7-0.2-1.2-0.5-1.7c-0.3-0.5-0.8-0.8-1.3-1c-0.4-0.1-1.1-0.2-2.1-0.2h-0.5V211
			z"/>
		<path class="st0" d="M123.6,204.8l3.2,6.8H126l-1.1-2.2H122l-1.1,2.2h-0.8l3.2-6.8H123.6z M123.5,206.2l-1.2,2.5h2.3L123.5,206.2z
			"/>
		<path class="st0" d="M127.6,211.6v-6.8h1.4c1,0,1.8,0.1,2.2,0.2c0.7,0.2,1.2,0.6,1.6,1.2c0.4,0.6,0.6,1.3,0.6,2
			c0,0.7-0.1,1.3-0.4,1.8c-0.3,0.5-0.7,0.9-1.1,1.1c-0.5,0.2-1.1,0.4-2,0.4H127.6z M128.2,211h0.8c0.9,0,1.6-0.1,2-0.2
			c0.5-0.2,0.9-0.5,1.2-0.9c0.3-0.4,0.4-1,0.4-1.6c0-0.7-0.2-1.2-0.5-1.7c-0.3-0.5-0.8-0.8-1.3-1c-0.4-0.1-1.1-0.2-2.1-0.2h-0.5V211
			z"/>
		<path class="st0" d="M134.6,204.8h3.9v0.7h-3.2v2.1h3.2v0.7h-3.2v2.7h3.2v0.7h-3.9V204.8z"/>
		<path class="st0" d="M139,210.3l0.6-0.3c0.4,0.8,0.9,1.1,1.4,1.1c0.2,0,0.4-0.1,0.6-0.2c0.2-0.1,0.4-0.2,0.5-0.4
			c0.1-0.2,0.2-0.4,0.2-0.6c0-0.2-0.1-0.5-0.2-0.7c-0.2-0.3-0.6-0.7-1.2-1.1c-0.6-0.4-0.9-0.7-1.1-0.9c-0.2-0.3-0.4-0.7-0.4-1
			c0-0.3,0.1-0.6,0.2-0.8c0.1-0.2,0.3-0.4,0.6-0.6c0.3-0.1,0.5-0.2,0.8-0.2c0.3,0,0.6,0.1,0.9,0.2c0.3,0.2,0.6,0.5,0.9,0.9l-0.6,0.4
			c-0.3-0.3-0.5-0.6-0.7-0.7c-0.2-0.1-0.4-0.2-0.6-0.2c-0.3,0-0.5,0.1-0.7,0.2c-0.2,0.2-0.3,0.4-0.3,0.6c0,0.1,0,0.3,0.1,0.4
			c0.1,0.1,0.2,0.3,0.3,0.5c0.1,0.1,0.4,0.3,0.9,0.7c0.6,0.4,1,0.8,1.2,1.2c0.2,0.3,0.3,0.7,0.3,1c0,0.5-0.2,0.9-0.6,1.3
			c-0.4,0.4-0.8,0.5-1.4,0.5c-0.4,0-0.8-0.1-1.1-0.3C139.6,211.2,139.3,210.8,139,210.3z"/>
		<path class="st0" d="M147.1,204.8h1.4c0.8,0,1.3,0,1.6,0.1c0.4,0.1,0.7,0.3,1,0.6c0.2,0.3,0.4,0.7,0.4,1.1c0,0.5-0.1,0.8-0.4,1.1
			c-0.2,0.3-0.6,0.5-1,0.6c-0.3,0.1-0.9,0.1-1.7,0.1h-0.5v3.2h-0.7V204.8z M147.8,205.5v2.3l1.2,0c0.5,0,0.8,0,1-0.1
			c0.2-0.1,0.4-0.2,0.5-0.4c0.1-0.2,0.2-0.4,0.2-0.6c0-0.2-0.1-0.4-0.2-0.6c-0.1-0.2-0.3-0.3-0.5-0.4c-0.2-0.1-0.5-0.1-1-0.1H147.8z
			"/>
		<path class="st0" d="M155.7,204.8l3.2,6.8h-0.7l-1.1-2.2h-2.9l-1.1,2.2h-0.8l3.2-6.8H155.7z M155.6,206.2l-1.2,2.5h2.3
			L155.6,206.2z"/>
		<path class="st0" d="M282.2,205.9l-0.5,0.4c-0.3-0.4-0.7-0.7-1.1-0.9c-0.4-0.2-0.9-0.3-1.4-0.3c-0.5,0-1,0.1-1.5,0.4
			c-0.5,0.3-0.8,0.6-1.1,1.1c-0.3,0.4-0.4,0.9-0.4,1.5c0,0.8,0.3,1.5,0.9,2.1c0.6,0.6,1.3,0.8,2.2,0.8c1,0,1.8-0.4,2.4-1.1l0.5,0.4
			c-0.3,0.4-0.8,0.8-1.3,1c-0.5,0.2-1.1,0.4-1.7,0.4c-1.2,0-2.1-0.4-2.8-1.2c-0.6-0.7-0.9-1.5-0.9-2.4c0-1,0.4-1.8,1-2.5
			c0.7-0.7,1.6-1,2.6-1c0.6,0,1.2,0.1,1.7,0.4C281.4,205.1,281.9,205.4,282.2,205.9z"/>
		<path class="st0" d="M271.4,204.8l3.2,6.8h-0.7l-1.1-2.2h-2.9l-1.1,2.2H268l3.2-6.8H271.4z M271.3,206.2l-1.2,2.5h2.3L271.3,206.2
			z"/>
		<path class="st0" d="M159.8,204.8h1.4c0.8,0,1.3,0,1.5,0.1c0.4,0.1,0.7,0.3,1,0.6c0.3,0.3,0.4,0.7,0.4,1.1c0,0.4-0.1,0.7-0.3,1
			c-0.2,0.3-0.4,0.5-0.7,0.6c-0.3,0.1-0.8,0.2-1.3,0.2l2.4,3.2h-0.8l-2.4-3.2h-0.4v3.2h-0.7V204.8z M160.5,205.5v2.3l1.2,0
			c0.5,0,0.8,0,1-0.1c0.2-0.1,0.4-0.2,0.5-0.4c0.1-0.2,0.2-0.4,0.2-0.6c0-0.2-0.1-0.4-0.2-0.6c-0.1-0.2-0.3-0.3-0.5-0.4
			c-0.2-0.1-0.5-0.1-1-0.1H160.5z"/>
		<path class="st0" d="M168.4,204.8l3.2,6.8h-0.7l-1.1-2.2h-2.9l-1.1,2.2h-0.8l3.2-6.8H168.4z M168.4,206.2l-1.2,2.5h2.3
			L168.4,206.2z"/>
		<path class="st0" d="M175.1,204.8h0.7v6.2h2.6v0.7h-3.3V204.8z"/>
		<path class="st0" d="M182.5,204.8l3.2,6.8h-0.7l-1.1-2.2h-2.9l-1.1,2.2h-0.8l3.2-6.8H182.5z M182.4,206.2l-1.2,2.5h2.3
			L182.4,206.2z"/>
		<path class="st0" d="M188,210.5l0.6-0.3c0.4,0.8,0.9,1.1,1.4,1.1c0.2,0,0.4-0.1,0.6-0.2c0.2-0.1,0.4-0.2,0.5-0.4
			c0.1-0.2,0.2-0.4,0.2-0.6c0-0.2-0.1-0.5-0.2-0.7c-0.2-0.3-0.6-0.7-1.2-1.1c-0.6-0.4-0.9-0.7-1.1-0.9c-0.2-0.3-0.4-0.7-0.4-1
			c0-0.3,0.1-0.6,0.2-0.8c0.1-0.2,0.3-0.4,0.6-0.6c0.3-0.1,0.5-0.2,0.8-0.2c0.3,0,0.6,0.1,0.9,0.2c0.3,0.2,0.6,0.5,0.9,0.9l-0.6,0.4
			c-0.3-0.3-0.5-0.6-0.7-0.7c-0.2-0.1-0.4-0.2-0.6-0.2c-0.3,0-0.5,0.1-0.7,0.2c-0.2,0.2-0.3,0.4-0.3,0.6c0,0.1,0,0.3,0.1,0.4
			c0.1,0.1,0.2,0.3,0.3,0.5c0.1,0.1,0.4,0.3,0.9,0.7c0.6,0.4,1,0.8,1.2,1.2c0.2,0.3,0.3,0.7,0.3,1c0,0.5-0.2,0.9-0.6,1.3
			c-0.4,0.4-0.8,0.5-1.4,0.5c-0.4,0-0.8-0.1-1.1-0.3C188.6,211.4,188.3,211,188,210.5z"/>
		<path class="st0" d="M193.5,205h0.7v4.1c0,0.5,0,0.8,0,0.9c0,0.3,0.1,0.5,0.2,0.7c0.1,0.2,0.3,0.3,0.6,0.5
			c0.3,0.1,0.5,0.2,0.8,0.2c0.2,0,0.4,0,0.6-0.1c0.2-0.1,0.4-0.2,0.5-0.4c0.1-0.2,0.2-0.4,0.3-0.6c0-0.2,0.1-0.5,0.1-1.1V205h0.7
			v4.1c0,0.6-0.1,1.1-0.2,1.5c-0.1,0.4-0.4,0.7-0.7,1c-0.4,0.3-0.8,0.4-1.3,0.4c-0.5,0-1-0.1-1.4-0.4c-0.4-0.3-0.7-0.6-0.8-1
			c-0.1-0.3-0.1-0.7-0.1-1.4V205z"/>
		<path class="st0" d="M199,210.5l0.6-0.3c0.4,0.8,0.9,1.1,1.4,1.1c0.2,0,0.4-0.1,0.6-0.2c0.2-0.1,0.4-0.2,0.5-0.4
			c0.1-0.2,0.2-0.4,0.2-0.6c0-0.2-0.1-0.5-0.2-0.7c-0.2-0.3-0.6-0.7-1.2-1.1c-0.6-0.4-0.9-0.7-1.1-0.9c-0.2-0.3-0.4-0.7-0.4-1
			c0-0.3,0.1-0.6,0.2-0.8c0.1-0.2,0.3-0.4,0.6-0.6c0.3-0.1,0.5-0.2,0.8-0.2c0.3,0,0.6,0.1,0.9,0.2c0.3,0.2,0.6,0.5,0.9,0.9l-0.6,0.4
			c-0.3-0.3-0.5-0.6-0.7-0.7c-0.2-0.1-0.4-0.2-0.6-0.2c-0.3,0-0.5,0.1-0.7,0.2c-0.2,0.2-0.3,0.4-0.3,0.6c0,0.1,0,0.3,0.1,0.4
			c0.1,0.1,0.2,0.3,0.3,0.5c0.1,0.1,0.4,0.3,0.9,0.7c0.6,0.4,1,0.8,1.2,1.2c0.2,0.3,0.3,0.7,0.3,1c0,0.5-0.2,0.9-0.6,1.3
			c-0.4,0.4-0.8,0.5-1.4,0.5c-0.4,0-0.8-0.1-1.1-0.3C199.6,211.4,199.2,211,199,210.5z"/>
		<path class="st0" d="M203.7,205.6V205h3.7v0.7h-1.5v6.1h-0.7v-6.1H203.7z"/>
		<path class="st0" d="M208.4,205h3.9v0.7h-3.2v2.1h3.2v0.7h-3.2v2.7h3.2v0.7h-3.9V205z"/>
		<path class="st0" d="M213.5,211.8V205h0.1l4.5,5.2V205h0.7v6.8h-0.2l-4.5-5.2v5.2H213.5z"/>
		<path class="st0" d="M219.9,205.6V205h3.7v0.7h-1.5v6.1h-0.7v-6.1H219.9z"/>
		<path class="st0" d="M227.4,205l3.2,6.8h-0.7l-1.1-2.2h-2.9l-1.1,2.2H224l3.2-6.8H227.4z M227.3,206.4l-1.2,2.5h2.3L227.3,206.4z"
			/>
		<path class="st0" d="M231.5,205h1.3c0.5,0,1,0.1,1.2,0.2c0.3,0.1,0.5,0.3,0.7,0.6c0.2,0.3,0.3,0.6,0.3,0.9c0,0.3-0.1,0.6-0.2,0.8
			c-0.1,0.2-0.4,0.5-0.6,0.6c0.4,0.1,0.6,0.3,0.8,0.4c0.2,0.2,0.3,0.4,0.4,0.6c0.1,0.2,0.2,0.5,0.2,0.7c0,0.5-0.2,1-0.6,1.4
			c-0.4,0.4-0.9,0.6-1.6,0.6h-1.9V205z M232.1,205.6v2.2h0.4c0.5,0,0.8,0,1-0.1c0.2-0.1,0.4-0.2,0.5-0.4c0.1-0.2,0.2-0.4,0.2-0.6
			c0-0.3-0.1-0.6-0.3-0.7c-0.2-0.2-0.6-0.3-1-0.3H232.1z M232.1,208.5v2.6h0.8c0.5,0,0.9,0,1.1-0.1c0.2-0.1,0.4-0.2,0.6-0.5
			c0.1-0.2,0.2-0.4,0.2-0.7c0-0.3-0.1-0.6-0.3-0.8c-0.2-0.2-0.5-0.4-0.8-0.5c-0.2-0.1-0.6-0.1-1.2-0.1H232.1z"/>
		<path class="st0" d="M236.8,205h0.7v6.8h-0.7V205z"/>
		<path class="st0" d="M239,205h0.7v6.2h2.6v0.7H239V205z"/>
		<path class="st0" d="M243.3,205h0.7v6.8h-0.7V205z"/>
		<path class="st0" d="M245.6,211.8V205h1.4c1,0,1.8,0.1,2.2,0.2c0.7,0.2,1.2,0.6,1.5,1.2c0.4,0.6,0.6,1.3,0.6,2
			c0,0.7-0.1,1.3-0.4,1.8c-0.3,0.5-0.7,0.9-1.1,1.1c-0.5,0.2-1.1,0.4-2,0.4H245.6z M246.2,211.1h0.8c0.9,0,1.6-0.1,2-0.2
			c0.5-0.2,0.9-0.5,1.2-0.9c0.3-0.4,0.4-1,0.4-1.6c0-0.7-0.2-1.2-0.5-1.7c-0.3-0.5-0.8-0.8-1.3-1c-0.4-0.1-1.1-0.2-2.1-0.2h-0.5
			V211.1z"/>
		<path class="st0" d="M255.6,205l3.2,6.8H258l-1.1-2.2H254l-1.1,2.2h-0.8l3.2-6.8H255.6z M255.5,206.4l-1.2,2.5h2.3L255.5,206.4z"
			/>
		<path class="st0" d="M259.6,211.8V205h1.4c1,0,1.8,0.1,2.2,0.2c0.7,0.2,1.2,0.6,1.5,1.2c0.4,0.6,0.6,1.3,0.6,2
			c0,0.7-0.1,1.3-0.4,1.8c-0.3,0.5-0.7,0.9-1.1,1.1c-0.5,0.2-1.1,0.4-2,0.4H259.6z M260.2,211.1h0.8c0.9,0,1.6-0.1,2-0.2
			c0.5-0.2,0.9-0.5,1.2-0.9c0.3-0.4,0.4-1,0.4-1.6c0-0.7-0.2-1.2-0.5-1.7c-0.3-0.5-0.8-0.8-1.3-1c-0.4-0.1-1.1-0.2-2.1-0.2h-0.5
			V211.1z"/>
		<g>
			<path d="M275,211.1c0-0.3,0.2-0.5,0.5-0.5c0.3,0,0.5,0.2,0.5,0.5c0,0.3-0.2,0.5-0.5,0.5C275.2,211.6,275,211.4,275,211.1z"/>
		</g>
		<g>
			<path d="M282.7,211.1c0-0.3,0.2-0.5,0.5-0.5c0.3,0,0.5,0.2,0.5,0.5c0,0.3-0.2,0.5-0.5,0.5C282.9,211.6,282.7,211.4,282.7,211.1z"
				/>
		</g>
	</g>
	<g>
		<path d="M11.8,160.5c0-18.3,15-32.7,32.8-32.7c11.7,0,22.2,6,27.8,16.1c1.7,2.8,0.6,5.7-1.7,6.7c-2.1,1.1-5,0.6-6.1-1.7
			c-4.4-7.3-11.7-11.6-20-11.6c-12.7,0-23.3,10.5-23.3,23.3c0,12.8,10.6,22.9,23.3,22.9c7.7,0,15.1-3.9,19.4-10.6
			c1.1-2.2,4.6-2.8,6.1-1.1c2.2,1.1,3.3,4,1.7,6.1c-6.1,9.5-16.1,15.1-27.3,15.1C26.8,192.9,11.8,178.4,11.8,160.5z"/>
		<path d="M77.7,169.5c0-12.9,10.5-23.3,23.3-23.3c12.9,0,23.3,10.4,23.3,23.3c0,12.8-10.4,23.3-23.3,23.3
			C88.2,192.9,77.7,182.4,77.7,169.5z M86.9,169.5c0,7.7,6.3,14.1,14.1,14.1s14.1-6.4,14.1-14.1c0-7.8-6.3-14.1-14.1-14.1
			S86.9,161.7,86.9,169.5z"/>
		<path d="M167.5,150.7v-23.2c0-2.5,2-4.6,4.6-4.6c2.6,0,4.7,2,4.7,4.6v41.7v0.1c0,12.8-10.5,23.3-23.3,23.3
			c-12.9,0-23.3-10.5-23.3-23.3c0-12.9,10.4-23.3,23.3-23.3C158.6,146,163.6,147.8,167.5,150.7z M167.5,169.3L167.5,169.3
			c0-7.8-6.3-14.1-14.1-14.1c-7.8,0-14.1,6.3-14.1,14.1c0,7.7,6.3,14.1,14.1,14.1C161.2,183.5,167.5,177.1,167.5,169.3z"/>
		<path d="M183.8,135.7c-0.8-0.8-1.4-2-1.4-3.3s0.6-2.4,1.4-3.3c0.8-0.8,2-1.4,3.3-1.4s2.4,0.6,3.3,1.4c0.8,0.8,1.3,2,1.3,3.3
			s-0.5,2.4-1.3,3.3c-0.8,0.8-2,1.3-3.3,1.3S184.7,136.5,183.8,135.7z M182.4,188.3v-37.5c0-2.5,2-4.6,4.7-4.6c2.5,0,4.6,2,4.6,4.6
			v37.5c0,2.6-2,4.7-4.6,4.7C184.5,193,182.4,190.9,182.4,188.3z"/>
		<path d="M230.3,179c0,2.7-2,14-15.5,14c-6.5,0-14.1-2.9-16.6-9.4c-0.2-0.4-0.2-0.8-0.2-1.3c0-2.3,2.1-4.6,4.7-4.6
			c1.3,0,2.7,0.7,3.5,1.8c2.1,3,4.4,4.2,8.4,4.4c6,0,6.4-4.1,6.5-4.8c0-3.2-3.3-4.5-7.7-4.9c-5.7-0.7-15.4-3.7-15.4-14
			c0-8.9,7.5-14.2,15.7-14.2c3.1,0,6.1,0.7,8.9,2.1c0.9,0.5,7.7,3.5,7.7,9.2c-0.2,2.3-2.2,4.5-4.7,4.5c-2.2,0-3.2-1.5-4.3-3.2
			c-1.3-2.6-5.2-3.4-7.8-3.4c-3.4,0-6.4,2-6.4,5.1c0,6.7,10,2.3,17.8,8.3C228.2,171.2,230.3,175.2,230.3,179z"/>
		<path d="M282,169.5c0,2.5-2,4.6-4.7,4.6h-32.1c2,5.6,7.2,9.6,13.4,9.6c2.1,0,6-0.2,10.4-3.1c2.1-1.4,5-0.1,6.1,2.1
			c1.1,2.3-0.1,4.7-2.2,6.1c-6.1,4.1-10.9,4-14.3,4c-12.9,0-23.3-10.5-23.3-23.3c0-12.9,10.4-23.3,23.3-23.3
			C269.9,146.2,282,154.4,282,169.5z M245.2,164.9h26.9c-2-6.5-7.9-9.5-13.5-9.5C252.4,155.4,247.2,159.4,245.2,164.9z"/>
	</g>
	<g>
		<g>
			<polygon class="st1" points="160.6,82 160.6,81.9 160.6,81.9 			"/>
			<path class="st2" d="M186.3,58.5c0,8.8-2.9,16.9-7.7,23.5l13.7,0c3.6-7,5.7-15,5.7-23.4c0-10.1-2.9-19.5-8-27.4L183.2,43
				C185.2,47.7,186.3,53,186.3,58.5z"/>
			<path class="st3" d="M109.8,73.3L103,84.9c9,14.8,25.2,24.7,43.8,24.7c0.6,0,1.2,0,1.8,0L142,97.9
				C127.3,96.2,115.1,86.5,109.8,73.3z"/>
			<path class="st4" d="M192.4,81.9l-13.7,0c-7.2,9.9-18.9,16.3-32,16.3c-1.6,0-3.1-0.1-4.7-0.3l6.8,11.7
				C167.8,109,184.2,97.9,192.4,81.9z"/>
			<path class="st5" d="M106.9,58.5c0-9.3,3.2-17.8,8.5-24.5h-13.5c-4,7.3-6.3,15.6-6.3,24.5c0,9.7,2.7,18.7,7.4,26.5l6.8-11.6
				C107.9,68.7,106.9,63.7,106.9,58.5z"/>
			<path class="st6" d="M146.6,18.7c1.6,0,3.1,0.1,4.6,0.3l-7-11.7c-18.3,0.9-34.1,11.4-42.4,26.6h13.5
				C122.7,24.7,134,18.7,146.6,18.7z"/>
			<path class="st7" d="M183.2,43l6.9-11.9C181,16.7,165.1,7.2,146.9,7.2c-0.9,0-1.7,0-2.6,0.1l7,11.7
				C165.7,20.7,177.8,30.1,183.2,43z"/>
		</g>
	</g>
	<path class="st8" d="M147,7.2c-28.3,0-51.2,22.9-51.2,51.2c0,28.3,22.9,51.2,51.2,51.2s51.2-22.9,51.2-51.2
		C198.2,30.1,175.3,7.2,147,7.2z M146.7,98.1c-21.9,0-39.7-17.8-39.7-39.7c0-21.9,17.8-39.7,39.7-39.7c21.9,0,39.7,17.8,39.7,39.7
		C186.5,80.4,168.7,98.1,146.7,98.1z"/>
	<g>
		<path d="M137.7,40.2c0.3-2.3,3.6-1.7,4.5-3.4c-0.6-3.1-6.3-2.2-7.9-0.7c-2,7,3.7,9.2,6.9,12.1c3-0.6,4.2-3,7.6-3.1
			c0.4-4-0.6-4.1-0.3-6.9c0.6-5.7,7.5-12.6,15.5-11.4c4.7,0.7,10.9,5.6,10,12.4c-0.7,5.3-3.7,10.7-10.7,9.7
			c-3.4-0.5-7.4-4.2-3.4-7.6c2,0.4,2.3,2.5,4.5,2.8c2.3-2.8-0.6-6.9-3.1-7.2c-4.1-0.5-5.7,3.9-6.9,7.2c3,2.6,3.6,7.6,6.6,10.4
			c3.3-0.4,6.7-0.6,10.4-0.7c0.7-1.5-1.4-2.6-1.4-4.5c0.9-1.5,3.9-2.7,5.9-2.1c1.8,1.3,3.6,3,5.2,5.2c1.2,1.6,3.8,4.9,3.8,6.6
			c0,2.2-4.8,7.2-6.6,8.6c-1.4,1.1-4.1,2.5-6.2,2.4c-1.8-1.3-2.3-3.9-2.1-7.2c-3.2-1.1-7.7,1.5-10.7-0.3c-0.7,0.6-0.5,2-1.4,2.4
			c2,2.4,4.6,1.9,7.2,3.4c5.6,3.4,7.5,13.7,3.8,19c-1.8,2.5-7.5,6.4-13.1,5.2c-2.8-0.6-8.5-5.9-8.6-9.7c-0.2-5.8,6.6-12.5,10-5.9
			c-0.3,2.2-3.9,1.2-4.1,3.4c1.9,3.1,7.5,1.8,8.3-0.7c1.6-4.9-3.8-7.8-6.2-10c-2.5,2-3.7,7.1-9,5.2c2,12.3-13.5,20.3-22.1,11.7
			c-3.9-3.9-3.9-9.1-1.4-14.8c1.4-1.1,3.1-3.6,6.6-3.8c4.5-0.2,9.3,2.2,6.6,7.2c-2.4,0.9-3-1.8-4.8-2.4c-3.2,2.7,0.6,7.4,3.1,7.6
			c4.2,0.3,5.7-4.7,6.6-8.6c-1.2-1.7-3.6-1.2-4.8-2.8c-1.2-1.5-1.1-3.6-1.4-6.2c-2.9,0.3-8.2-1-10.7,0.7c-0.3,1.6,0.5,2.2,0.3,3.8
			c-1.5,2.9-5.5,2.5-7.9,0.7c-0.2-1.8,0.4-4.3-0.3-5.5c-0.7-1.3-3-0.9-4.5-1.4c-1.5-1.6-3.6-3.9-2.8-6.6c1.6-1.6,6.8,0.3,7.9-1.7
			c0.2-2.5-0.5-5.8,0.7-7.2c2.3-1.7,5.9-0.1,7.2,1.4c0.7,2.1,0,4,0.3,5.9c2.4,0.9,6.9-0.2,9.3,0.7c1.2-4.7-4.1-4.4-5.9-6.2
			c-2.5-2.5-3.8-6.9-3.8-10.4c-0.1-7.9,8.2-14.6,15.9-12.1c2.2,0.7,6.8,4.8,7.6,7.6C149.4,38.5,142,47,137.7,40.2z M151.8,56.1
			c-1.5-0.9-1-2.7-2.8-3.1c-1.5-0.3-3,1.2-4.5,1.7c-0.8,0-1.6,0-2.4,0c-0.2,2.6,0.2,4.6,0.3,6.9c1.7,1,3.3,2,5.2,2.8
			C150.5,62.6,151.2,59.2,151.8,56.1z"/>
	</g>
</g>
</svg>
