<?xml version="1.0" encoding="utf-8"?>
<!-- Generator: Adobe Illustrator 22.1.0, SVG Export Plug-In . SVG Version: 6.00 Build 0)  -->
<svg version="1.1" id="Capa_1" xmlns="http://www.w3.org/2000/svg" xmlns:xlink="http://www.w3.org/1999/xlink" x="0px" y="0px"
	 viewBox="0 0 300 288" style="enable-background:new 0 0 300 288;" xml:space="preserve">
<style type="text/css">
	.st0{fill:#070408;}
	.st1{fill:#080408;}
	.st2{fill:#080508;}
	.st3{fill:#F2E79C;}
	.st4{fill:#F4F8F0;}
	.st5{fill:#F6F8E6;}
	.st6{fill:#CDDEB7;}
	.st7{fill:#F7F9EF;}
	.st8{fill:#F3F7EE;}
	.st9{fill:#E8CACE;}
	.st10{fill:#EFE7A9;}
	.st11{fill:#F7F9F1;}
	.st12{fill:#EFE5A6;}
	.st13{fill:#F5F9F3;}
	.st14{fill:#C0D0E6;}
	.st15{fill:#E8C2BD;}
	.st16{fill:#F4F8F1;}
	.st17{fill:#DC9F9B;}
	.st18{fill:#E0ACA8;}
	.st19{fill:#F1EAE0;}
	.st20{fill:#FFFFFF;}
	.st21{fill:#F5F8F0;}
	.st22{fill:#F7F3EA;}
	.st23{fill:#E8F2EC;}
	.st24{fill:#F5F8EE;}
	.st25{fill:#F6F9EF;}
	.st26{fill:#F6F9F2;}
	.st27{fill:#F6F9F0;}
	.st28{fill:#F7F8EA;}
	.st29{fill:#F8FBF7;}
	.st30{fill:#F5F9F0;}
	.st31{fill:#F0E5D8;}
	.st32{fill:#E5C941;}
	.st33{fill:#F1D99C;}
	.st34{fill:#F1D99D;}
	.st35{fill:#F1DA9D;}
	.st36{fill:#EFDB98;}
	.st37{fill:#F1DAA0;}
	.st38{fill:#DD9D30;}
	.st39{fill:#E9DB42;}
	.st40{fill:#DEA04E;}
	.st41{fill:#E9F2E7;}
	.st42{fill:#99C19C;}
	.st43{fill:#CADCB1;}
	.st44{fill:#D0E0BA;}
	.st45{fill:#3677A3;}
	.st46{fill:#223789;}
	.st47{fill:#7DB0D4;}
	.st48{fill:#669CC5;}
	.st49{fill:#95BFD1;}
	.st50{fill:#6974A6;}
	.st51{fill:#D8DCE6;}
	.st52{fill:#1E4289;}
	.st53{fill:#2290AA;}
	.st54{fill:#A4CDDD;}
	.st55{fill:#84BAC3;}
	.st56{fill:#B2CFB2;}
	.st57{fill:#E4EAB4;}
	.st58{fill:#DAE39F;}
	.st59{fill:#C6D474;}
	.st60{fill:#E3B3AB;}
	.st61{fill:#DDA49E;}
	.st62{fill:#E1AFA6;}
	.st63{fill:#DCAB9B;}
	.st64{fill:#CCDDB4;}
	.st65{fill:#B6D3BC;}
	.st66{fill:#B1CFAC;}
	.st67{fill:#5EA140;}
	.st68{fill:#B0CEAC;}
	.st69{fill:#EFD3B3;}
	.st70{fill:#ECCCAD;}
	.st71{fill:#F6F5E8;}
	.st72{fill:#348D41;}
	.st73{fill:#75B096;}
	.st74{fill:#B4D0AF;}
	.st75{fill:#EECFAD;}
	.st76{fill:#EFD3B2;}
	.st77{fill:#B3D2C7;}
	.st78{fill:#9CC9D9;}
	.st79{fill:#93AACE;}
	.st80{fill:#CC632E;}
	.st81{fill:#E1ADA2;}
	.st82{fill:#DB9633;}
	.st83{fill:#F8F9F1;}
	.st84{fill:#ECCCB4;}
	.st85{fill:#E7BC94;}
	.st86{fill:#A3C592;}
	.st87{fill:#C2D7AE;}
	.st88{fill:#E3EDD7;}
	.st89{fill:#F1F6EB;}
	.st90{fill:#F7FAF3;}
	.st91{fill:#9ABF87;}
	.st92{fill:#A0C38F;}
	.st93{fill:#9DC18E;}
	.st94{fill:#EEE0A9;}
	.st95{fill:#EDD89D;}
	.st96{fill:#E8DE37;}
	.st97{fill:#E9D657;}
	.st98{fill:#F6F8E8;}
	.st99{fill:#F1ECBA;}
	.st100{fill:#DC9F9A;}
	.st101{fill:#E9C394;}
	.st102{fill:#E0ADA7;}
	.st103{fill:#EBCCC7;}
	.st104{fill:#C3D8AF;}
	.st105{fill:#DE9F4B;}
	.st106{fill:#CD6D63;}
	.st107{fill:#EFD5C5;}
	.st108{fill:#BBB9D9;}
	.st109{fill:#B2A1C6;}
	.st110{fill:#C22F23;}
	.st111{fill:#EAC9BF;}
	.st112{fill:#E8C2AD;}
	.st113{fill:#D58A7F;}
	.st114{fill:#DC9F95;}
	.st115{fill:#EFE7A7;}
	.st116{fill:#EDD1C7;}
	.st117{fill:#EBCAC1;}
	.st118{fill:#EFE7A6;}
	.st119{fill:#C6DCC2;}
	.st120{fill:#AEA5C0;}
	.st121{fill:#CECAE2;}
	.st122{fill:#9588AC;}
	.st123{fill:#897EA0;}
	.st124{fill:#F1F4F2;}
	.st125{fill:#ACA9CF;}
	.st126{fill:#9591BF;}
	.st127{fill:#D99033;}
	.st128{fill:#E8D644;}
	.st129{fill:#F4F0D5;}
	.st130{fill:#B6D3C1;}
	.st131{fill:#C9DEC7;}
	.st132{fill:#F2F7EF;}
	.st133{fill:#646496;}
	.st134{fill:#A1A1C2;}
	.st135{fill:#DFA9A2;}
	.st136{fill:#F4F2D4;}
	.st137{fill:#DEA79A;}
	.st138{fill:#E8F1E4;}
	.st139{fill:#EAF2E8;}
	.st140{fill:#2F398A;}
	.st141{fill:#253177;}
	.st142{fill:#C23127;}
	.st143{fill:#F3F8F1;}
	.st144{fill:#D3E7EC;}
	.st145{fill:#E8F1EC;}
	.st146{fill:#F1F6EF;}
	.st147{fill:#B2CFAF;}
	.st148{fill:#F7FAF2;}
	.st149{fill:#DD9C2D;}
	.st150{fill:#EAD228;}
	.st151{fill:#E6C34D;}
	.st152{fill:#E3CF2D;}
	.st153{fill:#DD9E2C;}
	.st154{fill:#EDC630;}
	.st155{fill:#EDC62D;}
	.st156{fill:#D88E30;}
	.st157{fill:#E8D42A;}
	.st158{fill:#B5D3C3;}
	.st159{fill:#B4D3C4;}
	.st160{fill:#8ABA98;}
	.st161{fill:#B5D3C4;}
	.st162{fill:#B7D5C5;}
	.st163{fill:#FEFEFD;}
	.st164{fill:#BBD7C6;}
	.st165{fill:#FDFEFC;}
	.st166{fill:#E8F1E7;}
	.st167{fill:#E7F0E6;}
	.st168{fill:#6AA069;}
	.st169{fill:#88AD87;}
	.st170{fill:#A0C49B;}
	.st171{fill:#419942;}
	.st172{fill:#97BA5C;}
	.st173{fill:#A8C689;}
	.st174{fill:#ABC787;}
	.st175{fill:#6DA73D;}
	.st176{fill:#95BA69;}
	.st177{fill:#B3CC8F;}
	.st178{fill:#A3CDDB;}
	.st179{fill:#69B1D1;}
	.st180{fill:#205993;}
	.st181{fill:#226289;}
	.st182{fill:#A7CEDF;}
	.st183{fill:#598BAE;}
	.st184{fill:#A8C4D7;}
	.st185{fill:#83B6DB;}
	.st186{fill:#3D5098;}
	.st187{fill:#4C6AAA;}
	.st188{fill:#19317C;}
	.st189{fill:#282979;}
	.st190{fill:#6279B4;}
	.st191{fill:#48518D;}
	.st192{fill:#2590CE;}
	.st193{fill:#209AC8;}
	.st194{fill:#2B8BB0;}
	.st195{fill:#8EC2D5;}
	.st196{fill:#6CB1BD;}
	.st197{fill:#7DB9C8;}
	.st198{fill:#329165;}
	.st199{fill:#51A6A3;}
	.st200{fill:#1C8E7A;}
	.st201{fill:#2592C5;}
	.st202{fill:#99C3B1;}
	.st203{fill:#2B8CB6;}
	.st204{fill:#3797C9;}
	.st205{fill:#377CA5;}
	.st206{fill:#71B5D3;}
	.st207{fill:#3D96CB;}
	.st208{fill:#BAD9E4;}
	.st209{fill:#4D9E56;}
	.st210{fill:#3C6331;}
	.st211{fill:#74A567;}
	.st212{fill:#5EA143;}
	.st213{fill:#488F42;}
	.st214{fill:#A1C5A4;}
	.st215{fill:#C8D577;}
	.st216{fill:#A8C03D;}
	.st217{fill:#C23029;}
	.st218{fill:#D38979;}
	.st219{fill:#C12D22;}
	.st220{fill:#C3705F;}
	.st221{fill:#C54533;}
	.st222{fill:#A5C481;}
	.st223{fill:#BBD29D;}
	.st224{fill:#95BE94;}
	.st225{fill:#5F894B;}
	.st226{fill:#7DA067;}
	.st227{fill:#E6C762;}
	.st228{fill:#E7C662;}
	.st229{fill:#DE9E30;}
	.st230{fill:#CC642E;}
	.st231{fill:#90BB8C;}
	.st232{fill:#64A44C;}
	.st233{fill:#B5D2B8;}
	.st234{fill:#388E43;}
	.st235{fill:#82B484;}
	.st236{fill:#36713A;}
	.st237{fill:#306D38;}
	.st238{fill:#5BA14D;}
	.st239{fill:#8FBA8B;}
	.st240{fill:#5EA24D;}
	.st241{fill:#83B481;}
	.st242{fill:#DEA03A;}
	.st243{fill:#DEA498;}
	.st244{fill:#3A8498;}
	.st245{fill:#72B4C0;}
	.st246{fill:#2E7683;}
	.st247{fill:#2591CF;}
	.st248{fill:#36589E;}
	.st249{fill:#4F8AA1;}
	.st250{fill:#CE6D48;}
	.st251{fill:#CF7135;}
	.st252{fill:#C23227;}
	.st253{fill:#C2352D;}
	.st254{fill:#DFA44C;}
	.st255{fill:#BC491C;}
	.st256{fill:#D07533;}
	.st257{fill:#CA5D3E;}
	.st258{fill:#CA5C30;}
	.st259{fill:#73AC6E;}
	.st260{fill:#76AC66;}
	.st261{fill:#77AC60;}
	.st262{fill:#D1E1BC;}
	.st263{fill:#D4E3C4;}
	.st264{fill:#FEFFFD;}
	.st265{fill:#90BFB6;}
	.st266{fill:#AECEB8;}
	.st267{fill:#F1F6EE;}
	.st268{fill:#D99034;}
	.st269{fill:#E8BF83;}
	.st270{fill:#CC632F;}
	.st271{fill:#AFC437;}
	.st272{fill:#DECD2E;}
	.st273{fill:#E6D629;}
	.st274{fill:#E6D32B;}
	.st275{fill:#D99235;}
	.st276{fill:#E9CF64;}
	.st277{fill:#E8D645;}
	.st278{fill:#C0311E;}
	.st279{fill:#C46F5D;}
	.st280{fill:#D27E5E;}
	.st281{fill:#C75040;}
	.st282{fill:#C95C51;}
	.st283{fill:#C75248;}
	.st284{fill:#8C88BA;}
	.st285{fill:#8D89BA;}
	.st286{fill:#B0ADD2;}
	.st287{fill:#392D85;}
	.st288{fill:#292553;}
	.st289{fill:#C64D3E;}
	.st290{fill:#CA6150;}
	.st291{fill:#C64D3D;}
	.st292{fill:#C64C3C;}
	.st293{fill:#C43F40;}
	.st294{fill:#D89180;}
	.st295{fill:#C74F40;}
	.st296{fill:#DCA093;}
	.st297{fill:#D37F6E;}
	.st298{fill:#DDAAA0;}
	.st299{fill:#C23022;}
	.st300{fill:#CD8F88;}
	.st301{fill:#322170;}
	.st302{fill:#2D2760;}
	.st303{fill:#332863;}
	.st304{fill:#39569C;}
	.st305{fill:#6C68A5;}
	.st306{fill:#6C6CA8;}
	.st307{fill:#D7903C;}
	.st308{fill:#E8CF67;}
	.st309{fill:#B2CFB0;}
	.st310{fill:#A4C7A1;}
	.st311{fill:#272871;}
	.st312{fill:#CF715D;}
	.st313{fill:#E9C6B7;}
	.st314{fill:#C85644;}
	.st315{fill:#BAD5C2;}
	.st316{fill:#92BC96;}
	.st317{fill:#598BC5;}
	.st318{fill:#3A579D;}
	.st319{fill:#304B96;}
	.st320{fill:#C43D38;}
	.st321{fill:#C43E38;}
	.st322{fill:#ABD1DE;}
	.st323{fill:#7F93A3;}
	.st324{fill:#F3F9FA;}
	.st325{fill:#D4E7EC;}
	.st326{fill:#6A94A2;}
	.st327{fill:#5A7685;}
	.st328{fill:#677B8A;}
	.st329{fill:#C8DADB;}
	.st330{fill:#3D8E40;}
	.st331{fill:#CA5C2C;}
	.st332{fill:#CF7026;}
	.st333{fill:#CB8120;}
	.st334{fill:#CA8329;}
	.st335{fill:#D37D2F;}
	.st336{fill:#C98135;}
	.st337{fill:#D58429;}
	.st338{fill:#D58422;}
	.st339{fill:#8AB998;}
	.st340{fill:#89B998;}
	.st341{fill:#8AB997;}
	.st342{fill:#72AD82;}
	.st343{fill:#CDE1CD;}
	.st344{fill:#D1E4D4;}
	.st345{fill:#D2E4D2;}
	.st346{fill:#77AF7F;}
	.st347{fill:#A3C7A8;}
	.st348{fill:#ADCCA9;}
	.st349{fill:#C6DDC9;}
	.st350{fill:#B2D1C0;}
	.st351{fill:#D2E3D0;}
	.st352{fill:#A6CAB4;}
	.st353{fill:#A8CBB5;}
	.st354{fill:#4DA5B6;}
	.st355{fill:#73B5C6;}
	.st356{fill:#77B6C4;}
	.st357{fill:#2894D0;}
	.st358{fill:#6AAAB7;}
	.st359{fill:#76B6C5;}
	.st360{fill:#A7CCC3;}
	.st361{fill:#499B81;}
	.st362{fill:#2B95C9;}
	.st363{fill:#3A9EC4;}
	.st364{fill:#C9E0D8;}
	.st365{fill:#83BBC4;}
	.st366{fill:#2997CA;}
	.st367{fill:#59AABC;}
	.st368{fill:#97C5CB;}
	.st369{fill:#3C833E;}
	.st370{fill:#629F5D;}
	.st371{fill:#92BA7B;}
	.st372{fill:#73AB63;}
	.st373{fill:#79AD60;}
	.st374{fill:#89B6E1;}
	.st375{fill:#2A6EB1;}
	.st376{fill:#69B2D2;}
	.st377{fill:#BFDBE4;}
	.st378{fill:#6AB1D0;}
	.st379{fill:#CEE4E9;}
	.st380{fill:#5097BE;}
	.st381{fill:#81BBDD;}
	.st382{fill:#7AA6C5;}
	.st383{fill:#5968A7;}
	.st384{fill:#74ABD4;}
	.st385{fill:#5766A6;}
	.st386{fill:#7D8ABE;}
	.st387{fill:#4780BE;}
	.st388{fill:#5D80BB;}
	.st389{fill:#5A69A8;}
	.st390{fill:#2D4894;}
	.st391{fill:#355199;}
	.st392{fill:#4681BF;}
	.st393{fill:#9BC1E6;}
	.st394{fill:#50599D;}
	.st395{fill:#5665A6;}
	.st396{fill:#5161A3;}
	.st397{fill:#353F8D;}
	.st398{fill:#294B96;}
	.st399{fill:#314893;}
	.st400{fill:#5060A2;}
	.st401{fill:#6371AE;}
	.st402{fill:#7683B9;}
	.st403{fill:#2F549C;}
	.st404{fill:#2A7BBC;}
	.st405{fill:#73AAD4;}
	.st406{fill:#2487BE;}
	.st407{fill:#73B5C9;}
	.st408{fill:#94C3E8;}
	.st409{fill:#2E76B1;}
	.st410{fill:#307CBD;}
	.st411{fill:#5EAED2;}
	.st412{fill:#4C9AB5;}
	.st413{fill:#70B4D3;}
	.st414{fill:#A4CDDE;}
	.st415{fill:#42A6D0;}
	.st416{fill:#2289C9;}
	.st417{fill:#327BBC;}
	.st418{fill:#70AAD4;}
	.st419{fill:#337ABB;}
	.st420{fill:#2384C4;}
	.st421{fill:#9ECBE0;}
	.st422{fill:#6DB3CA;}
	.st423{fill:#2F8DB4;}
	.st424{fill:#297FC0;}
	.st425{fill:#41A7DA;}
	.st426{fill:#6AA8D4;}
	.st427{fill:#6DA9D4;}
	.st428{fill:#2686C6;}
	.st429{fill:#228BC6;}
	.st430{fill:#2A85C5;}
	.st431{fill:#1F92C7;}
	.st432{fill:#70AAD5;}
	.st433{fill:#2289C8;}
	.st434{fill:#86BFDB;}
	.st435{fill:#2D80C0;}
	.st436{fill:#2987B9;}
	.st437{fill:#2087C7;}
	.st438{fill:#72ABD6;}
	.st439{fill:#6CA9D4;}
	.st440{fill:#53AAD2;}
	.st441{fill:#63A7D1;}
	.st442{fill:#52AAD2;}
	.st443{fill:#E5F0F0;}
	.st444{fill:#2892CB;}
	.st445{fill:#A4C8AC;}
	.st446{fill:#F8FBFB;}
	.st447{fill:#EDF5F2;}
	.st448{fill:#ECF4F3;}
	.st449{fill:#2C87AD;}
	.st450{fill:#2B83B6;}
	.st451{fill:#3697C9;}
	.st452{fill:#2E8AB8;}
	.st453{fill:#6FB4D2;}
	.st454{fill:#41A7DC;}
	.st455{fill:#65A772;}
	.st456{fill:#448D3F;}
	.st457{fill:#226937;}
	.st458{fill:#438E3F;}
	.st459{fill:#A5C268;}
	.st460{fill:#D48375;}
	.st461{fill:#D5877A;}
	.st462{fill:#6EAA69;}
	.st463{fill:#67A768;}
	.st464{fill:#4B9C41;}
	.st465{fill:#2E9547;}
	.st466{fill:#5AA25B;}
	.st467{fill:#72AC6E;}
	.st468{fill:#70B3C7;}
	.st469{fill:#2D9256;}
	.st470{fill:#68A656;}
	.st471{fill:#6FAA6A;}
	.st472{fill:#6DA969;}
	.st473{fill:#59A694;}
	.st474{fill:#88B899;}
	.st475{fill:#6EAA6A;}
	.st476{fill:#589F40;}
	.st477{fill:#84B8AD;}
	.st478{fill:#3E9842;}
	.st479{fill:#2B9559;}
	.st480{fill:#539E41;}
	.st481{fill:#6DA96A;}
	.st482{fill:#409942;}
	.st483{fill:#598B3A;}
	.st484{fill:#509840;}
	.st485{fill:#62A455;}
	.st486{fill:#63A45A;}
	.st487{fill:#359EC0;}
	.st488{fill:#DE9F34;}
	.st489{fill:#D17827;}
	.st490{fill:#E8BA45;}
	.st491{fill:#D37D2E;}
	.st492{fill:#ACCBA1;}
	.st493{fill:#A4C7A3;}
	.st494{fill:#A1C5A1;}
	.st495{fill:#81B383;}
	.st496{fill:#92BD95;}
	.st497{fill:#84B584;}
	.st498{fill:#82B481;}
	.st499{fill:#89B783;}
	.st500{fill:#A3C599;}
	.st501{fill:#ACCCAD;}
	.st502{fill:#8EBB99;}
	.st503{fill:#369153;}
	.st504{fill:#84B585;}
	.st505{fill:#92C4D9;}
	.st506{fill:#5DA3B0;}
	.st507{fill:#93C4D6;}
	.st508{fill:#67B1CC;}
	.st509{fill:#2B93AC;}
	.st510{fill:#208FC5;}
	.st511{fill:#2887C6;}
	.st512{fill:#78B1CA;}
	.st513{fill:#6BB2CC;}
	.st514{fill:#5FAECB;}
	.st515{fill:#365BA0;}
	.st516{fill:#64B0CD;}
	.st517{fill:#8FC2D5;}
	.st518{fill:#3593B4;}
	.st519{fill:#5BACCA;}
	.st520{fill:#288CCB;}
	.st521{fill:#2386C0;}
	.st522{fill:#2C87B7;}
	.st523{fill:#2994D0;}
	.st524{fill:#3DA4DA;}
	.st525{fill:#1D93C3;}
	.st526{fill:#82BCCF;}
	.st527{fill:#5DADC8;}
	.st528{fill:#2786C6;}
	.st529{fill:#6BB2CB;}
	.st530{fill:#3097D0;}
	.st531{fill:#5CACCB;}
	.st532{fill:#2B84C4;}
	.st533{fill:#2C97CB;}
	.st534{fill:#4D63A5;}
	.st535{fill:#6360A1;}
	.st536{fill:#5D99D0;}
	.st537{fill:#3488C7;}
	.st538{fill:#3E69AC;}
	.st539{fill:#5767A7;}
	.st540{fill:#36579D;}
	.st541{fill:#3E6AAC;}
	.st542{fill:#92C4E8;}
	.st543{fill:#155498;}
	.st544{fill:#4979B7;}
	.st545{fill:#65B2DE;}
	.st546{fill:#4C62A4;}
	.st547{fill:#2B4B96;}
	.st548{fill:#343174;}
	.st549{fill:#2B4994;}
	.st550{fill:#3C6EAF;}
	.st551{fill:#689FD4;}
	.st552{fill:#94C4DF;}
	.st553{fill:#73A5D4;}
	.st554{fill:#A5C7D7;}
	.st555{fill:#2B5099;}
	.st556{fill:#6F9BCF;}
	.st557{fill:#4E8BC7;}
	.st558{fill:#8FC0D2;}
	.st559{fill:#285099;}
	.st560{fill:#3D61A5;}
	.st561{fill:#447EBC;}
	.st562{fill:#4588C5;}
	.st563{fill:#4064A7;}
	.st564{fill:#4B5299;}
	.st565{fill:#4B8CBC;}
	.st566{fill:#314B96;}
	.st567{fill:#3D65A8;}
	.st568{fill:#576AAA;}
	.st569{fill:#396BAD;}
	.st570{fill:#5B94CC;}
	.st571{fill:#4F4E96;}
	.st572{fill:#5E82BC;}
	.st573{fill:#5A86C0;}
	.st574{fill:#588FC9;}
	.st575{fill:#6C93C9;}
	.st576{fill:#4380BF;}
	.st577{fill:#C1DBE7;}
	.st578{fill:#4882BF;}
	.st579{fill:#ACC993;}
	.st580{fill:#298459;}
	.st581{fill:#58A154;}
	.st582{fill:#519B5E;}
	.st583{fill:#58A157;}
	.st584{fill:#D27926;}
	.st585{fill:#CB8424;}
	.st586{fill:#E3AC40;}
	.st587{fill:#D37C30;}
	.st588{fill:#C23122;}
	.st589{fill:#B5461D;}
	.st590{fill:#85B039;}
	.st591{fill:#48398A;}
	.st592{fill:#252178;}
	.st593{fill:#463A8A;}
	.st594{fill:#32226B;}
	.st595{fill:#423C8C;}
	.st596{fill:#36529A;}
	.st597{fill:#3F5098;}
	.st598{fill:#5968A8;}
	.st599{fill:#374B95;}
	.st600{fill:#D3806A;}
	.st601{fill:#C85543;}
	.st602{fill:#D07864;}
	.st603{fill:#5B9357;}
	.st604{fill:#95C6E7;}
	.st605{fill:#CB6358;}
	.st606{fill:#C75046;}
	.st607{fill:#66A765;}
	.st608{fill:#78AB44;}
	.st609{fill:#428D3F;}
	.st610{fill:#6CA863;}
	.st611{fill:#479B41;}
	.st612{fill:#2E7970;}
	.st613{fill:#288C62;}
	.st614{fill:#5A903B;}
	.st615{fill:#6DA74A;}
	.st616{fill:#8CB337;}
	.st617{fill:#64A666;}
	.st618{fill:#4A9B4A;}
	.st619{fill:#92C0AF;}
	.st620{fill:#6AB2CC;}
	.st621{fill:#31919D;}
	.st622{fill:#91C3D5;}
	.st623{fill:#90C3D4;}
	.st624{fill:#8EC1D3;}
	.st625{fill:#3399D0;}
	.st626{fill:#2591D0;}
	.st627{fill:#2692CB;}
	.st628{fill:#3B8CC1;}
	.st629{fill:#4999C0;}
	.st630{fill:#3380B4;}
	.st631{fill:#62ADCE;}
	.st632{fill:#3484B4;}
	.st633{fill:#81BCD9;}
	.st634{fill:#3F5A9F;}
	.st635{fill:#7F8DC0;}
	.st636{fill:#495A9E;}
	.st637{fill:#758BC0;}
	.st638{fill:#4B4E96;}
	.st639{fill:#72A7D3;}
	.st640{fill:#9DA5CF;}
	.st641{fill:#47579C;}
	.st642{fill:#47599E;}
	.st643{fill:#7075AF;}
	.st644{fill:#93A4D0;}
	.st645{fill:#9BAAD3;}
	.st646{fill:#5E8DBF;}
	.st647{fill:#A0C7E5;}
	.st648{fill:#2E74AE;}
	.st649{fill:#94C5E6;}
	.st650{fill:#8ABAE4;}
	.st651{fill:#679ED1;}
	.st652{fill:#AAB7DA;}
	.st653{fill:#5D95CD;}
	.st654{fill:#60ABDA;}
	.st655{fill:#54A3D8;}
	.st656{fill:#3871B3;}
	.st657{fill:#A2CDE2;}
	.st658{fill:#B3D6E6;}
	.st659{fill:#5A81B9;}
	.st660{fill:#5C86C0;}
	.st661{fill:#608BC0;}
	.st662{fill:#5C6FAD;}
	.st663{fill:#70A6D2;}
	.st664{fill:#5C89C3;}
	.st665{fill:#4B99C3;}
	.st666{fill:#3795D1;}
	.st667{fill:#A0CCE2;}
	.st668{fill:#6BA3CD;}
	.st669{fill:#A0CCDD;}
	.st670{fill:#1F5A98;}
	.st671{fill:#B1D0DC;}
	.st672{fill:#449BC1;}
	.st673{fill:#7DBAD6;}
	.st674{fill:#EDF5F4;}
	.st675{fill:#F0F6F5;}
	.st676{fill:#FAFCFC;}
	.st677{fill:#E2EEED;}
	.st678{fill:#9FCAD3;}
	.st679{fill:#EDF5F3;}
	.st680{fill:#5BA1AD;}
	.st681{fill:#6DB2BE;}
	.st682{fill:#7DBAD1;}
	.st683{fill:#A8D0DC;}
	.st684{fill:#405299;}
	.st685{fill:#777FB6;}
	.st686{fill:#534D95;}
	.st687{fill:#6187C0;}
	.st688{fill:#75ABD4;}
	.st689{fill:#5F97B5;}
	.st690{fill:#77B8D8;}
	.st691{fill:#8EB9E3;}
	.st692{fill:#BFDCE7;}
	.st693{fill:#D17C72;}
	.st694{fill:#7AAF73;}
	.st695{fill:#64B0CF;}
	.st696{fill:#6BB3D7;}
	.st697{fill:#3682AB;}
	.st698{fill:#368BB6;}
	.st699{fill:#549FD3;}
	.st700{fill:#5FACDB;}
	.st701{fill:#4C98C5;}
	.st702{fill:#5974B2;}
	.st703{fill:#6577B2;}
	.st704{fill:#6172AE;}
	.st705{fill:#A2BCE0;}
	.st706{fill:#356DAE;}
	.st707{fill:#2D6DB0;}
	.st708{fill:#5996CF;}
	.st709{fill:#8BBDE4;}
	.st710{fill:#7DB1D7;}
	.st711{fill:#699BD0;}
	.st712{fill:#6099BC;}
	.st713{fill:#76ACD4;}
	.st714{fill:#677CB6;}
	.st715{fill:#368AB2;}
	.st716{fill:#3F9AC8;}
	.st717{fill:#8EBEDF;}
	.st718{fill:#F9FBFB;}
	.st719{fill:#F6FAF9;}
	.st720{fill:#EAF3F0;}
	.st721{fill:#9194C3;}
	.st722{fill:#EFF6F4;}
	.st723{fill:#FBFDFC;}
	.st724{fill:#442B73;}
	.st725{fill:#1C3278;}
	.st726{fill:#1C8A42;}
	.st727{fill:#C23229;}
	.st728{fill:#D0742A;}
	.st729{fill:#F3E62E;}
	.st730{fill:#962D25;}
	.st731{fill:none;stroke:#040006;stroke-width:2.0726;stroke-miterlimit:10;}
	.st732{fill:#040006;stroke:#040006;stroke-width:1.0445;stroke-miterlimit:10;}
	.st733{fill:#2A2A2A;}
	.st734{fill:#FFFFFF;stroke:#040006;stroke-width:0.2961;stroke-miterlimit:10;}
	.st735{fill:#C12A24;}
	.st736{fill:#C43F24;}
	.st737{fill:#EBE147;}
	.st738{fill:#387137;}
	.st739{fill:#123F89;}
	.st740{fill:#811D71;}
	.st741{fill:#0F3B85;}
	.st742{fill:#D48030;}
	.st743{fill:#803688;}
	.st744{fill:#455098;}
	.st745{fill:#24954F;}
	.st746{fill:#F3E72E;}
	.st747{fill:#D27937;}
	.st748{fill:#C23237;}
</style>
<g>
	<path class="st743" d="M38.3,59.9c-3.4-1.2-3.4,0-3.4,0l6.8,10.7c0,0,3.4-0.8,8-2.2V60C45.5,61.3,40.7,60.7,38.3,59.9z"/>
	<path class="st743" d="M49.2,115.4c0,0-2.2,8.5,0.5,21v-22.5C49.3,114.8,49.2,115.4,49.2,115.4z"/>
	<path class="st744" d="M65.4,63.7V37.9c-0.2,0.5-0.4,1-0.6,1.6c-1.7,5.7-6.3,13.3-10.7,17.8c-1.2,1.3-2.8,2.1-4.5,2.7v8.3
		c3.5-1,7.6-2.3,11.7-3.7C62.8,64.2,64.1,63.9,65.4,63.7z"/>
	<path class="st744" d="M49.7,113.9v22.5c0.8,3.5,1.9,7.4,3.7,11.5c2.2,5.2,6.7,11,12.1,16.7V93.6C54.8,102.6,50.9,110.6,49.7,113.9
		z"/>
	<path class="st745" d="M81.3,247.9v-25.1C76.1,229.9,77.5,240.8,81.3,247.9z"/>
	<path class="st745" d="M65.5,93.6v71.1c4.9,5.2,10.6,10.3,15.8,14.7V83C74.8,86.5,69.6,90.1,65.5,93.6z"/>
	<path class="st745" d="M77.8,66.5c0,0,1.4,0.4,3.4-0.7V30.3c-3,3.9-5,4.6-8.8,4.7c-3.3,0.1-5.4-0.8-7,2.7v26
		C72.8,62.8,77.8,66.5,77.8,66.5z"/>
	<path class="st745" d="M65.4,93.6v70.9c0,0,0.1,0.1,0.1,0.1L65.4,93.6C65.5,93.6,65.4,93.6,65.4,93.6z"/>
	<path class="st745" d="M65.5,63.7v-26c0,0.1-0.1,0.1-0.1,0.2L65.5,63.7C65.4,63.7,65.5,63.7,65.5,63.7z"/>
	<path class="st746" d="M86,61.4c3.4-4.8,8.4-3.5,11.1,0.4V33.7c-1.9-2-2.5-3.6-5.6-6.5c-5.2-5-7.2-1-10.2,3c0,0-0.1,0.1-0.1,0.1
		v35.6C82.6,65.2,84.2,63.9,86,61.4z"/>
	<path class="st746" d="M86.2,230.2c0,0,2.5-6.8,7.8-6c1.2,0.2,2.3,0.6,3.1,1.1v-8.5c-2.3-0.6-4.3-0.4-4.3-0.4
		c-5.5,0.8-9.2,3.2-11.6,6.5v25.1c0.1,0.3,0.3,0.5,0.4,0.8c3.6,6.3,9.6,9.1,15.4,10.1v-8.5C81.9,245.6,86.2,230.2,86.2,230.2z"/>
	<path class="st746" d="M97.1,168c-1.3-3-6.7-17.5,0-31.6V71.8c-3.4,4.8-10.6,8.5-10.6,8.5c-1.8,0.9-3.6,1.8-5.3,2.7v96.3
		c7,5.9,13.2,10.5,15.8,12.5V168z"/>
	<path class="st746" d="M97.1,239.4v-0.8C97,239.1,97,239.3,97.1,239.4z"/>
	<path class="st747" d="M101.8,251.4c-1.8-0.2-3.3-0.6-4.8-1v8.5c6.9,1.2,13.6-0.1,15.8-1.1v-11.4
		C108.1,251.9,101.8,251.4,101.8,251.4z"/>
	<path class="st747" d="M98.3,234.9c-0.8,2-1.1,3.1-1.3,3.8v0.8c0.1,0.2,0.4,0,0.4,0c6.7,0.7,7.5-12.3,7.5-12.3
		c0-6.9-4.4-9.4-7.9-10.2v8.5C99.7,227,100.1,230.4,98.3,234.9z"/>
	<path class="st747" d="M97.1,33.7v28.1c0.9,1.3,1.5,2.8,1.8,4.6c0.3,1.9-0.5,3.7-1.8,5.5v64.5c0.9-2,2.1-4,3.6-6
		c4.6-6.2,8.8-12.1,12.3-18.1V46.4c-2.9-2.9-6.1-5.2-9.1-7.2C100.2,36.7,98.4,35.1,97.1,33.7z"/>
	<path class="st747" d="M97.1,168v23.9c0.9,0.7,1.4,1,1.4,1s8.5,7.2,14.4,17.6v-17.4l-15.6-24.5C97.3,168.5,97.2,168.3,97.1,168z"/>
	<path class="st748" d="M123.5,75.5c0.2-14.7-4.7-23.3-10.6-29.1v65.9C119.3,101.2,123.3,89.8,123.5,75.5z"/>
	<path class="st748" d="M118.3,232c-0.7,7-2.9,11.5-5.4,14.3v11.4c0,0,0.1,0,0.1,0c4-1.8,14.3-8.7,15.3-26.3
		c0.9-16.8-12.2-33.2-12.2-33.2l-3.3-5.1v17.4C116.5,216.8,119.2,224.3,118.3,232z"/>
</g>
<g>
	<path d="M98.2,151.8L98.2,151.8c0-6.1,4.6-10.8,10.9-10.8c4.2,0,6.9,1.8,8.8,4.3l-4.3,3.3c-1.2-1.5-2.5-2.4-4.5-2.4
		c-2.9,0-4.9,2.4-4.9,5.5v0.1c0,3.1,2,5.5,4.9,5.5c2.2,0,3.4-1,4.7-2.5l4.3,3.1c-1.9,2.7-4.6,4.7-9.1,4.7
		C103,162.4,98.2,157.9,98.2,151.8z"/>
	<path d="M116.9,151.8L116.9,151.8c0-6,4.8-10.8,11.2-10.8s11.1,4.8,11.1,10.7v0.1c0,5.9-4.8,10.7-11.2,10.7
		C121.7,162.4,116.9,157.7,116.9,151.8z M133.3,151.8L133.3,151.8c0-3-2.2-5.6-5.3-5.6c-3.1,0-5.2,2.5-5.2,5.5v0.1
		c0,3,2.2,5.6,5.3,5.6C131.3,157.3,133.3,154.7,133.3,151.8z"/>
	<path d="M140,141.4h5.7V157h10v5H140V141.4z"/>
	<path d="M155.9,141.4h16.6v4.9h-10.9v3.1h9.9v4.5h-9.9v3.3h11.1v4.9h-16.8V141.4z"/>
	<path d="M172.5,151.8L172.5,151.8c0-6.1,4.6-10.8,10.9-10.8c4.2,0,6.9,1.8,8.8,4.3l-4.3,3.3c-1.2-1.5-2.5-2.4-4.5-2.4
		c-2.9,0-4.9,2.4-4.9,5.5v0.1c0,3.1,2,5.5,4.9,5.5c2.2,0,3.4-1,4.7-2.5l4.3,3.1c-1.9,2.7-4.6,4.7-9.1,4.7
		C177.3,162.4,172.5,157.9,172.5,151.8z"/>
	<path d="M197.6,146.4h-6.2v-5h18.1v5h-6.2V162h-5.7V146.4z"/>
	<path d="M209.9,141.4h5.8V162h-5.8V141.4z"/>
	<path d="M215.6,141.4h6.4l4.7,13.1l4.7-13.1h6.3l-8.4,20.8H224L215.6,141.4z"/>
	<path d="M235.4,151.8L235.4,151.8c0-6,4.8-10.8,11.2-10.8s11.1,4.8,11.1,10.7v0.1c0,5.9-4.8,10.7-11.2,10.7
		C240.1,162.4,235.4,157.7,235.4,151.8z M251.8,151.8L251.8,151.8c0-3-2.2-5.6-5.3-5.6c-3.1,0-5.2,2.5-5.2,5.5v0.1
		c0,3,2.2,5.6,5.3,5.6C249.7,157.3,251.8,154.7,251.8,151.8z"/>
</g>
<g>
	<path d="M114.6,170.4h6.4l4.7,13.1l4.7-13.1h6.3l-8.4,20.8H123L114.6,170.4z"/>
	<path d="M141.7,170.2h5.5L156,191h-6.1l-1.5-3.7h-8l-1.5,3.7h-6L141.7,170.2z M146.7,182.9l-2.3-5.9l-2.3,5.9H146.7z"/>
	<path d="M156.8,170.4h5.7V186h10v5h-15.7V170.4z"/>
	<path d="M173.8,170.4h5.7V186h10v5h-15.7V170.4z"/>
	<path d="M197.9,170.2h5.5l8.8,20.8h-6.1l-1.5-3.7h-8l-1.5,3.7h-6L197.9,170.2z M203,182.9l-2.3-5.9l-2.3,5.9H203z"/>
	<path d="M213.1,170.4h9.8c3.2,0,5.3,0.8,6.7,2.2c1.2,1.2,1.8,2.8,1.8,4.8v0.1c0,3.2-1.7,5.3-4.2,6.3l4.9,7.2h-6.6l-4.2-6.3h-0.1
		h-2.4v6.3h-5.7V170.4z M222.6,180.3c1.9,0,3.1-0.9,3.1-2.4v-0.1c0-1.6-1.2-2.5-3.1-2.5h-3.7v5H222.6z"/>
	<path d="M238.2,175.4H232v-5h18.1v5h-6.2V191h-5.7V175.4z"/>
	<path d="M255.9,170.2h5.5l8.8,20.8h-6.1l-1.5-3.7h-8l-1.5,3.7h-6L255.9,170.2z M260.9,182.9l-2.3-5.9l-2.3,5.9H260.9z"/>
</g>
<g>
	<path d="M195.6,198.2h5.7v15.6h10v5h-15.7V198.2z"/>
	<path d="M211,208.6L211,208.6c0-6.1,4.7-10.8,11.1-10.8c3.6,0,6.2,1.1,8.4,3l-3.4,4c-1.5-1.2-3-1.9-5-1.9c-3,0-5.3,2.5-5.3,5.7v0.1
		c0,3.3,2.3,5.7,5.6,5.7c1.4,0,2.5-0.3,3.3-0.9V211h-4.1v-4.2h9.5v9.3c-2.2,1.8-5.2,3.2-9,3.2C215.8,219.3,211,214.8,211,208.6z"/>
	<path d="M233.5,198.2h10.6c2.6,0,4.4,0.6,5.6,1.9c0.8,0.8,1.3,1.9,1.3,3.3v0.1c0,2.4-1.4,3.8-3.2,4.6c2.5,0.8,4.1,2.2,4.1,5v0.1
		c0,3.5-2.9,5.7-7.8,5.7h-10.7V198.2z M242.7,206.4c1.7,0,2.7-0.6,2.7-1.8v-0.1c0-1.1-0.9-1.8-2.6-1.8h-3.7v3.6H242.7z M243.5,214.2
		c1.7,0,2.7-0.7,2.7-1.9v-0.1c0-1.1-0.9-1.9-2.8-1.9h-4.4v3.8H243.5z"/>
	<path d="M258.5,203.2h-6.2v-5h18.1v5h-6.2v15.6h-5.7V203.2z"/>
</g>
</svg>
